stm32l5xx_hal_gtzc.c:216:19:HAL_GTZC_TZSC_ConfigPeriphAttributes	12	static
stm32l5xx_hal_gtzc.c:321:19:HAL_GTZC_TZSC_GetConfigPeriphAttributes	20	static
stm32l5xx_hal_gtzc.c:689:10:HAL_GTZC_TZSC_GetLock	0	static
